<?xml version="1.0" encoding="UTF-8" standalone="no"?>
<svg
   xmlns:dc="http://purl.org/dc/elements/1.1/"
   xmlns:cc="http://creativecommons.org/ns#"
   xmlns:rdf="http://www.w3.org/1999/02/22-rdf-syntax-ns#"
   xmlns:svg="http://www.w3.org/2000/svg"
   xmlns="http://www.w3.org/2000/svg"
   xmlns:sodipodi="http://sodipodi.sourceforge.net/DTD/sodipodi-0.dtd"
   xmlns:inkscape="http://www.inkscape.org/namespaces/inkscape"
   viewBox="0 0 157.2 51.3"
   version="1.1"
   id="svg33"
   sodipodi:docname="logo-footer.svg"
   inkscape:version="0.92.3 (unknown)">
  <metadata
     id="metadata39">
    <rdf:RDF>
      <cc:Work
         rdf:about="">
        <dc:format>image/svg+xml</dc:format>
        <dc:type
           rdf:resource="http://purl.org/dc/dcmitype/StillImage" />
      </cc:Work>
    </rdf:RDF>
  </metadata>
  <defs
     id="defs37">
    <linearGradient
       gradientTransform="matrix(40.649,0,0,-24.417,9229.493,10808.919)"
       y2="438.73099"
       x2="-223.802"
       y1="438.73099"
       x1="-224.802"
       gradientUnits="userSpaceOnUse"
       id="a">
      <stop
         id="stop4"
         stop-color="#3cb5fb"
         offset=".007" />
      <stop
         id="stop6"
         stop-color="#0071ff"
         offset="1" />
    </linearGradient>
    <linearGradient
       gradientTransform="matrix(40.649,0,0,-24.417,9252.0889,10738.083)"
       y2="439.10699"
       x2="-224.502"
       y1="437.44101"
       x1="-223.567"
       gradientUnits="userSpaceOnUse"
       id="b">
      <stop
         id="stop11"
         stop-color="#e2e1e6"
         offset="0" />
      <stop
         id="stop13"
         stop-color="#fff"
         offset=".425" />
      <stop
         id="stop15"
         stop-color="#e2e1e6"
         offset="1" />
    </linearGradient>
  </defs>
  <sodipodi:namedview
     pagecolor="#ffffff"
     bordercolor="#666666"
     borderopacity="1"
     objecttolerance="10"
     gridtolerance="10"
     guidetolerance="10"
     inkscape:pageopacity="0"
     inkscape:pageshadow="2"
     inkscape:window-width="1366"
     inkscape:window-height="703"
     id="namedview35"
     showgrid="false"
     inkscape:zoom="1.870229"
     inkscape:cx="78.599998"
     inkscape:cy="25.65"
     inkscape:window-x="0"
     inkscape:window-y="36"
     inkscape:window-maximized="1"
     inkscape:current-layer="svg33" />
  <path
     id="path18"
     d="m 154.70486,25.771286 -22.1,-12.399997 -18.5,11.099997 20.6,13.3 z"
     style="fill:url(#b)"
     inkscape:connector-curvature="0" />
  <g
     id="g29"
     transform="translate(108.002,-2.003)">
    <linearGradient
       gradientTransform="matrix(39.775,0,0,-35.453,8767.73,14630.23)"
       y2="412.095"
       x2="-219.32001"
       y1="412.095"
       x1="-220.32001"
       gradientUnits="userSpaceOnUse"
       id="c">
      <stop
         id="stop20"
         stop-color="#00fdfa"
         offset="0" />
      <stop
         id="stop22"
         stop-color="#e2e1e6"
         offset="0" />
      <stop
         id="stop24"
         stop-color="#fff"
         offset="1" />
    </linearGradient>
    <path
       id="path27"
       d="M 44.3,14.1 25.1,2.5 4.5,15.9 v 22 z"
       style="fill:url(#c)"
       inkscape:connector-curvature="0" />
  </g>
  <g
     transform="translate(0.89481935,-0.08401441)"
     style="font-style:normal;font-weight:normal;font-size:40px;line-height:1.25;font-family:sans-serif;letter-spacing:0px;word-spacing:0px;fill:#ffffff;fill-opacity:1;stroke:none"
     id="g855">
    <path
       d="m 92.100286,47.638707 q -1.866667,-0.693333 -4.373333,-2.399999 -2.56,-1.653334 -3.68,-3.04 2.56,-3.786667 5.013333,-9.013334 2.56,-5.333333 4.213333,-10.773333 l 7.466671,2.506667 q -0.906671,5.28 -3.306671,11.573333 -1.493333,3.893333 -3.093333,6.933333 -1.546667,3.093333 -2.24,4.213333 z"
       style="font-style:normal;font-variant:normal;font-weight:normal;font-stretch:normal;font-size:53.33333206px;font-family:Lalezar;-inkscape-font-specification:Lalezar;fill:#ffffff"
       id="path833"
       inkscape:connector-curvature="0" />
    <path
       d="m 76.732775,33.878708 q 0.266666,-4.266667 0.266666,-8.853333 0,-8.586667 -0.64,-20.7466665 l 8.64,-0.48 q 0.693333,10.2399995 0.693333,19.4133325 0,5.813334 -0.213333,9.44 -1.12,0.64 -3.573333,1.066667 -2.453333,0.373333 -4.853333,0.426666 z"
       style="font-style:normal;font-variant:normal;font-weight:normal;font-stretch:normal;font-size:53.33333206px;font-family:Lalezar;-inkscape-font-specification:Lalezar;fill:#ffffff"
       id="path835"
       inkscape:connector-curvature="0" />
    <path
       d="m 72.146937,15.745375 q 1.013334,3.2 1.013334,6.933333 0,2.826667 -0.586667,5.44 -0.586667,2.613333 -1.653333,4.32 -2.24,0.64 -5.92,1.12 -3.68,0.426666 -8.053333,0.426666 -0.8,0 -1.12,-1.173333 -0.32,-1.226666 -0.32,-3.786666 0,-2.506667 0.32,-3.733334 0.266666,-1.226666 1.12,-1.226666 5.706666,0 8.426666,-0.64 -0.426667,-1.813334 -1.066667,-3.573334 -0.586666,-1.76 -0.693333,-2.133333 z m -0.16,25.333333 q 0.106667,0.8 -1.173333,2.613333 -1.28,1.813333 -2.186667,2.453333 -1.013333,-0.426666 -2.56,-1.493333 -1.546666,-1.013333 -2.293333,-1.866667 -0.533333,0.96 -1.386667,1.973334 -0.853333,1.013333 -1.386666,1.386666 -1.066667,-0.48 -2.72,-1.653333 -1.653333,-1.12 -2.346667,-1.92 0.32,-1.12 1.6,-2.986667 1.28,-1.866666 2.133333,-1.866666 0.853334,0 2.56,1.173333 1.706667,1.226667 2.08,2.026667 0.746667,-1.333334 1.546667,-2.293334 0.8,-0.906666 1.44,-0.906666 0.853333,0 2.666667,1.28 1.866666,1.333333 2.026666,2.08 z"
       style="font-style:normal;font-variant:normal;font-weight:normal;font-stretch:normal;font-size:53.33333206px;font-family:Lalezar;-inkscape-font-specification:Lalezar;fill:#ffffff"
       id="path837"
       inkscape:connector-curvature="0" />
    <path
       d="m 56.934437,24.065375 q 0.853334,0 1.12,1.226666 0.32,1.226667 0.32,3.733334 0,2.56 -0.32,3.786666 -0.32,1.173333 -1.12,1.173333 -2.08,0 -4.266666,-1.013333 -2.133334,-1.066666 -4,-3.146666 -0.64,1.013333 -1.973334,2.933333 -1.386666,0.64 -3.679999,1.066666 -2.24,0.426667 -4.853334,0.426667 -3.253333,0 -5.759999,-0.693333 0.213333,-4.906667 1.759999,-9.493333 2.773334,0.266666 4.746667,0.266666 3.146667,0 5.866667,-0.586666 -2.88,-5.12 -6.4,-9.653333 l 7.36,-6.2400003 q 1.919999,2.7200003 3.093333,5.1733333 1.226666,2.453333 2.826666,6.293333 0.853334,1.973333 1.493334,2.933333 0.64,0.96 1.493333,1.386667 0.853333,0.426667 2.293333,0.426667 z"
       style="font-style:normal;font-variant:normal;font-weight:normal;font-stretch:normal;font-size:53.33333206px;font-family:Lalezar;-inkscape-font-specification:Lalezar;fill:#ffffff"
       id="path839"
       inkscape:connector-curvature="0" />
    <path
       d="m 19.753607,33.878708 q 0.266666,-4.266667 0.266666,-8.853333 0,-8.586667 -0.64,-20.7466665 l 8.64,-0.48 q 0.693334,10.2399995 0.693334,19.4133325 0,5.813334 -0.213334,9.44 -1.12,0.64 -3.573333,1.066667 -2.453333,0.373333 -4.853333,0.426666 z"
       style="font-style:normal;font-variant:normal;font-weight:normal;font-stretch:normal;font-size:53.33333206px;font-family:Lalezar;-inkscape-font-specification:Lalezar;fill:#ffffff"
       id="path841"
       inkscape:connector-curvature="0" />
  </g>
</svg>
